<?xml version="1.0" encoding="UTF-8"?>
<Project>
   <description></description>
   <name>TestKatalon</name>
   <tag></tag>
   <UUID>ddeb0536-97d8-4f93-a91d-321b8aa3b3d2</UUID>
   <migratedVersion>5.9.0</migratedVersion>
   <pageLoadTimeout>0</pageLoadTimeout>
   <sourceContent>
      <sourceFolderList>
         <sourceFolderConfiguration>
            <url>Include/scripts/groovy</url>
         </sourceFolderConfiguration>
      </sourceFolderList>
      <systemFolderList>
         <systemFolderConfiguration>
            <url>Include/scripts/groovy</url>
         </systemFolderConfiguration>
         <systemFolderConfiguration>
            <url>Include/features</url>
         </systemFolderConfiguration>
         <systemFolderConfiguration>
            <url>Include/config</url>
         </systemFolderConfiguration>
      </systemFolderList>
   </sourceContent>
   <type>WEBUI</type>
</Project>
